simulation/qsim/PRINCIPAL.msim.vcd
$comment
	File created using the following command:
		vcd file PRINCIPAL.msim.vcd -direction
$end
$date
	Thu Oct 10 21:31:02 2024
$end
$version
	ModelSim Version 10.5b
$end
$timescale
	1ps
$end

$scope module PRINCIPAL_vlg_vec_tst $end
$var reg 1 ! A $end
$var reg 1 " B $end
$var reg 1 # C $end
$var reg 1 $ CLK $end
$var reg 1 % ENN $end
$var reg 1 & KEY0 $end
$var reg 1 ' SW7 $end
$var reg 1 ( SW8 $end
$var reg 1 ) SW9 $end
$var wire 1 * H0 [6] $end
$var wire 1 + H0 [5] $end
$var wire 1 , H0 [4] $end
$var wire 1 - H0 [3] $end
$var wire 1 . H0 [2] $end
$var wire 1 / H0 [1] $end
$var wire 1 0 H0 [0] $end
$var wire 1 1 H1 [6] $end
$var wire 1 2 H1 [5] $end
$var wire 1 3 H1 [4] $end
$var wire 1 4 H1 [3] $end
$var wire 1 5 H1 [2] $end
$var wire 1 6 H1 [1] $end
$var wire 1 7 H1 [0] $end
$var wire 1 8 LD [5] $end
$var wire 1 9 LD [4] $end
$var wire 1 : LD [3] $end
$var wire 1 ; LD [2] $end
$var wire 1 < LD [1] $end
$var wire 1 = LD [0] $end
$var wire 1 > Q [3] $end
$var wire 1 ? Q [2] $end
$var wire 1 @ Q [1] $end
$var wire 1 A Q [0] $end

$scope module i1 $end
$var wire 1 B gnd $end
$var wire 1 C vcc $end
$var wire 1 D unknown $end
$var tri1 1 E devclrn $end
$var tri1 1 F devpor $end
$var tri1 1 G devoe $end
$var wire 1 H SW9~input_o $end
$var wire 1 I SW8~input_o $end
$var wire 1 J SW7~input_o $end
$var wire 1 K H0[6]~output_o $end
$var wire 1 L H0[5]~output_o $end
$var wire 1 M H0[4]~output_o $end
$var wire 1 N H0[3]~output_o $end
$var wire 1 O H0[2]~output_o $end
$var wire 1 P H0[1]~output_o $end
$var wire 1 Q H0[0]~output_o $end
$var wire 1 R H1[6]~output_o $end
$var wire 1 S H1[5]~output_o $end
$var wire 1 T H1[4]~output_o $end
$var wire 1 U H1[3]~output_o $end
$var wire 1 V H1[2]~output_o $end
$var wire 1 W H1[1]~output_o $end
$var wire 1 X H1[0]~output_o $end
$var wire 1 Y LD[5]~output_o $end
$var wire 1 Z LD[4]~output_o $end
$var wire 1 [ LD[3]~output_o $end
$var wire 1 \ LD[2]~output_o $end
$var wire 1 ] LD[1]~output_o $end
$var wire 1 ^ LD[0]~output_o $end
$var wire 1 _ Q[3]~output_o $end
$var wire 1 ` Q[2]~output_o $end
$var wire 1 a Q[1]~output_o $end
$var wire 1 b Q[0]~output_o $end
$var wire 1 c CLK~input_o $end
$var wire 1 d C~input_o $end
$var wire 1 e A~input_o $end
$var wire 1 f B~input_o $end
$var wire 1 g inst|Selector5~0_combout $end
$var wire 1 h inst|Selector1~0_combout $end
$var wire 1 i inst|Selector1~1_combout $end
$var wire 1 j inst|Selector1~2_combout $end
$var wire 1 k KEY0~input_o $end
$var wire 1 l ENN~input_o $end
$var wire 1 m inst|E.N1~q $end
$var wire 1 n inst|Selector2~0_combout $end
$var wire 1 o inst|Selector2~1_combout $end
$var wire 1 p inst|E.N2~q $end
$var wire 1 q inst|Selector3~0_combout $end
$var wire 1 r inst|Selector3~1_combout $end
$var wire 1 s inst|E.N3~q $end
$var wire 1 t inst|Selector4~0_combout $end
$var wire 1 u inst|Selector4~1_combout $end
$var wire 1 v inst|Selector4~2_combout $end
$var wire 1 w inst|E.N4~q $end
$var wire 1 x inst|process_0~0_combout $end
$var wire 1 y inst|Selector5~1_combout $end
$var wire 1 z inst|E.N7~q $end
$var wire 1 { inst|Selector0~0_combout $end
$var wire 1 | inst|Selector0~1_combout $end
$var wire 1 } inst|Selector0~2_combout $end
$var wire 1 ~ inst|E.N0~q $end
$var wire 1 !! inst2|Mux0~0_combout $end
$var wire 1 "! inst|WideOr1~combout $end
$var wire 1 #! inst|WideOr2~combout $end
$var wire 1 $! inst2|Mux1~2_combout $end
$var wire 1 %! inst2|Mux4~2_combout $end
$var wire 1 &! inst2|Mux3~2_combout $end
$var wire 1 '! inst2|Mux4~3_combout $end
$var wire 1 (! inst2|Mux5~2_combout $end
$var wire 1 )! inst2|Mux6~0_combout $end
$var wire 1 *! inst7|Mux1~0_combout $end
$var wire 1 +! inst|Q [3] $end
$var wire 1 ,! inst|Q [2] $end
$var wire 1 -! inst|Q [1] $end
$var wire 1 .! inst|Q [0] $end
$upscope $end
$upscope $end
$enddefinitions $end
#0
$dumpvars
0!
0"
0#
0$
1%
0&
x'
x(
x)
00
0/
0.
0-
0,
0+
1*
07
06
15
14
13
02
11
1=
0<
0;
0:
09
08
0A
0@
0?
0>
0B
1C
xD
1E
1F
1G
xH
xI
xJ
1K
0L
0M
0N
0O
0P
0Q
1R
0S
1T
1U
1V
0W
0X
0Y
0Z
0[
0\
0]
1^
0_
0`
0a
0b
0c
0d
0e
0f
0g
1h
0i
1j
0k
1l
0m
0n
0o
0p
1q
0r
0s
0t
0u
0v
0w
1x
0y
0z
0{
0|
1}
0~
1!!
1"!
1#!
0$!
1%!
0&!
0'!
0(!
0)!
1*!
z.!
0-!
z,!
z+!
$end
#10000
1$
1&
1k
1c
1~
1m
1]
0^
0%!
0#!
1n
0h
0=
1<
0*!
1)!
1Q
0T
0U
0V
1b
1X
1W
1S
1M
1,
12
16
17
1A
05
04
03
10
1&!
1$!
1o
0j
1L
1N
1-
1+
#20000
0$
0c
#30000
1$
1c
1p
0m
0]
1\
1%!
1#!
0n
1;
0<
1-!
1*!
0)!
0&!
0!!
1r
0K
0N
0Q
1T
1U
1V
1a
0b
0X
0W
0S
0M
0,
02
06
07
0A
1@
15
14
13
00
0-
0*
1'!
0o
1O
1.
#40000
0$
0c
#50000
1$
1c
1s
0p
0\
1[
0%!
1t
0"!
1:
0;
1)!
0-!
0'!
0$!
0r
0L
0O
0a
1Q
1`
1M
1,
1?
10
0@
0.
0+
1v
1&!
1N
1-
#60000
0$
0c
#70000
1$
1c
1w
0s
0[
1Z
0#!
0t
19
0:
1y
0*!
0)!
0Q
0T
0U
0V
1b
1X
1W
1S
12
16
17
1A
05
04
03
00
1(!
0&!
0v
0N
1P
1/
0-
#80000
0$
0c
#90000
1$
1c
1z
0w
0Z
1Y
1{
18
09
1-!
0(!
1&!
1$!
1!!
0y
1K
1L
1N
0P
1a
1@
0/
1-
1+
1*
0}
#100000
0$
0c
#110000
1$
1c
0~
0z
0Y
1^
1%!
1#!
1"!
1h
0{
1=
08
1*!
0-!
1(!
0&!
0$!
0L
0N
1P
0a
1T
1U
1V
0`
0b
0X
0W
0S
0M
0,
02
06
07
0A
0?
15
14
13
0@
1/
0-
0+
0(!
1j
1}
0P
0/
#120000
0$
0c
#130000
1$
1c
1~
1m
1]
0^
0%!
0#!
1n
0h
0=
1<
0*!
1)!
1Q
0T
0U
0V
1b
1X
1W
1S
1M
1,
12
16
17
1A
05
04
03
10
1&!
1$!
1o
0j
1L
1N
1-
1+
#140000
0$
0c
#150000
1$
1c
1p
0m
0]
1\
1%!
1#!
0n
1;
0<
1-!
1*!
0)!
0&!
0!!
1r
0K
0N
0Q
1T
1U
1V
1a
0b
0X
0W
0S
0M
0,
02
06
07
0A
1@
15
14
13
00
0-
0*
1'!
0o
1O
1.
#160000
1#
0$
1d
0c
0x
0q
1g
0r
1j
#170000
1$
1c
0p
1m
1]
0\
0%!
0#!
0;
1<
0-!
0*!
1)!
0'!
0$!
1!!
0j
0}
1K
0L
0O
1Q
0T
0U
0V
0a
1b
1X
1W
1S
1M
1,
12
16
17
1A
0@
05
04
03
10
0.
0+
1*
1&!
1$!
1L
1N
1-
1+
#180000
0$
0c
#190000
1$
1c
0~
0m
0]
1^
1%!
1#!
1=
0<
1*!
0)!
1y
1}
0Q
1T
1U
1V
0b
0X
0W
0S
0M
0,
02
06
07
0A
15
14
13
00
0&!
0$!
0L
0N
0-
0+
#200000
0$
0c
#210000
1$
1c
1~
1z
1Y
0^
0%!
0#!
0"!
0=
18
0*!
0y
1-!
1'!
1$!
1v
1L
1O
1a
0T
0U
0V
1`
1b
1X
1W
1S
1M
1,
12
16
17
1A
1?
05
04
03
1@
1.
1+
0'!
1&!
1N
0O
0.
1-
#220000
0$
0c
#230000
1$
1c
0z
1w
1Z
0Y
08
19
0-!
1(!
0&!
0$!
0!!
0v
1r
0K
0L
0N
1P
0a
0@
1/
0-
0+
0*
#240000
0$
0c
#250000
1$
1c
0w
1s
1[
0Z
1#!
09
1:
0r
1*!
1)!
1o
1Q
1T
1U
1V
0b
0X
0W
0S
02
06
07
0A
15
14
13
10
0(!
1&!
1N
0P
0/
1-
#260000
0$
0c
#270000
1$
1c
0s
1p
1\
0[
1%!
1"!
0:
1;
0)!
0o
1-!
0&!
1$!
1j
1L
0N
1a
0Q
0`
0M
0,
0?
00
1@
0-
1+
1'!
1O
1.
#280000
0$
0c
#290000
1$
1c
0p
1m
1]
0\
0%!
0#!
0;
1<
0-!
0*!
1)!
0'!
0$!
1!!
0j
0}
1K
0L
0O
1Q
0T
0U
0V
0a
1b
1X
1W
1S
1M
1,
12
16
17
1A
0@
05
04
03
10
0.
0+
1*
1&!
1$!
1L
1N
1-
1+
#300000
0$
0c
#310000
1$
1c
0~
0m
0]
1^
1%!
1#!
1=
0<
1*!
0)!
1y
1}
0Q
1T
1U
1V
0b
0X
0W
0S
0M
0,
02
06
07
0A
15
14
13
00
0&!
0$!
0L
0N
0-
0+
#320000
1"
0#
0$
0d
1f
0c
1q
1n
0g
1o
0y
#330000
1$
1c
1~
1p
1\
0^
0n
0=
1;
0!!
1-!
1'!
1$!
1r
1L
1O
1a
0K
0*
1@
1.
1+
0o
#340000
0$
0c
#350000
1$
1c
1s
0p
0\
1[
0%!
1|
0"!
1:
0;
1)!
0-!
0'!
0$!
0r
0L
0O
0a
1Q
1`
1M
1,
1?
10
0@
0.
0+
0}
1&!
1N
1-
#360000
0$
0c
#370000
1$
1c
0~
0s
0[
1^
1%!
1"!
1n
0|
1=
0:
0)!
1!!
1K
0Q
0`
0M
0,
0?
00
1*
0&!
1o
1}
0N
0-
#380000
0$
0c
#390000
1$
1c
1~
1p
1\
0^
0n
0=
1;
0!!
1-!
1'!
1$!
1r
1L
1O
1a
0K
0*
1@
1.
1+
0o
#400000
0$
0c
#410000
1$
1c
1s
0p
0\
1[
0%!
1|
0"!
1:
0;
1)!
0-!
0'!
0$!
0r
0L
0O
0a
1Q
1`
1M
1,
1?
10
0@
0.
0+
0}
1&!
1N
1-
#420000
0$
0c
#430000
1$
1c
0~
0s
0[
1^
1%!
1"!
1n
0|
1=
0:
0)!
1!!
1K
0Q
0`
0M
0,
0?
00
1*
0&!
1o
1}
0N
0-
#440000
0$
0c
#450000
1$
1c
1~
1p
1\
0^
0n
0=
1;
0!!
1-!
1'!
1$!
1r
1L
1O
1a
0K
0*
1@
1.
1+
0o
#460000
0$
0c
#470000
1$
1c
1s
0p
0\
1[
0%!
1|
0"!
1:
0;
1)!
0-!
0'!
0$!
0r
0L
0O
0a
1Q
1`
1M
1,
1?
10
0@
0.
0+
0}
1&!
1N
1-
#480000
1#
0$
1d
0c
#490000
1$
1c
0~
0s
0[
1^
1%!
1"!
1n
0|
1=
0:
0)!
1!!
1K
0Q
0`
0M
0,
0?
00
1*
0&!
1o
1}
0N
0-
#500000
0$
0c
#510000
1$
1c
1~
1p
1\
0^
0n
0=
1;
0!!
1-!
1'!
1$!
1r
1L
1O
1a
0K
0*
1@
1.
1+
0o
#520000
0$
0c
#530000
1$
1c
1s
0p
0\
1[
0%!
1|
0"!
1:
0;
1)!
0-!
0'!
0$!
0r
0L
0O
0a
1Q
1`
1M
1,
1?
10
0@
0.
0+
0}
1&!
1N
1-
#540000
0$
0c
#550000
1$
1c
0~
0s
0[
1^
1%!
1"!
1n
0|
1=
0:
0)!
1!!
1K
0Q
0`
0M
0,
0?
00
1*
0&!
1o
1}
0N
0-
#560000
0$
0c
#570000
1$
1c
1~
1p
1\
0^
0n
0=
1;
0!!
1-!
1'!
1$!
1r
1L
1O
1a
0K
0*
1@
1.
1+
0o
#580000
0$
0c
#590000
1$
1c
1s
0p
0\
1[
0%!
1|
0"!
1:
0;
1)!
0-!
0'!
0$!
0r
0L
0O
0a
1Q
1`
1M
1,
1?
10
0@
0.
0+
0}
1&!
1N
1-
#600000
0$
0c
#610000
1$
1c
0~
0s
0[
1^
1%!
1"!
1n
0|
1=
0:
0)!
1!!
1K
0Q
0`
0M
0,
0?
00
1*
0&!
1o
1}
0N
0-
#620000
0$
0c
#630000
1$
1c
1~
1p
1\
0^
0n
0=
1;
0!!
1-!
1'!
1$!
1r
1L
1O
1a
0K
0*
1@
1.
1+
0o
#640000
1!
0"
0#
0$
0d
0f
1e
0c
1x
0q
1u
0r
1v
#650000
1$
1c
1w
0p
0\
1Z
0%!
0#!
0"!
0u
19
0;
1y
0-!
0*!
0'!
0$!
0L
0O
0T
0U
0V
0a
1`
1b
1X
1W
1S
1M
1,
12
16
17
1A
1?
0@
05
04
03
0.
0+
1(!
0v
1P
1/
#660000
0$
0c
#670000
1$
1c
1z
0w
0Z
1Y
1i
18
09
1-!
0(!
1&!
1$!
1!!
0y
1K
1L
1N
0P
1a
1@
0/
1-
1+
1*
1j
#680000
0$
0c
#690000
1$
1c
0z
1m
1]
0Y
0i
1"!
1u
1n
08
1<
0-!
1(!
0&!
0$!
1)!
1Q
0L
0N
1P
0a
0`
0?
0@
1/
0-
0+
10
0j
0(!
1&!
1$!
1v
1L
1N
0P
0/
1-
1+
#700000
0$
0c
#710000
1$
1c
1w
0m
0]
1Z
0"!
0u
0n
19
0<
1y
0)!
0!!
0K
0Q
1`
1?
00
0*
1(!
0&!
0$!
0v
0L
0N
1P
1/
0-
0+
#720000
0$
0c
#730000
1$
1c
1z
0w
0Z
1Y
1i
18
09
1-!
0(!
1&!
1$!
1!!
0y
1K
1L
1N
0P
1a
1@
0/
1-
1+
1*
1j
#740000
0$
0c
#750000
1$
1c
0z
1m
1]
0Y
0i
1"!
1u
1n
08
1<
0-!
1(!
0&!
0$!
1)!
1Q
0L
0N
1P
0a
0`
0?
0@
1/
0-
0+
10
0j
0(!
1&!
1$!
1v
1L
1N
0P
0/
1-
1+
#760000
0$
0c
#770000
1$
1c
1w
0m
0]
1Z
0"!
0u
0n
19
0<
1y
0)!
0!!
0K
0Q
1`
1?
00
0*
1(!
0&!
0$!
0v
0L
0N
1P
1/
0-
0+
#780000
0$
0c
#790000
1$
1c
1z
0w
0Z
1Y
1i
18
09
1-!
0(!
1&!
1$!
1!!
0y
1K
1L
1N
0P
1a
1@
0/
1-
1+
1*
1j
#800000
1#
0$
1d
0c
#810000
1$
1c
0z
1m
1]
0Y
0i
1"!
1u
08
1<
0-!
1(!
0&!
0$!
1)!
1Q
0L
0N
1P
0a
0`
0?
0@
1/
0-
0+
10
0j
0(!
1&!
1$!
1v
1L
1N
0P
0/
1-
1+
#820000
0$
0c
#830000
1$
1c
1w
0m
0]
1Z
0"!
0u
19
0<
1y
0)!
0!!
0K
0Q
1`
1?
00
0*
1(!
0&!
0$!
0v
0L
0N
1P
1/
0-
0+
#840000
0$
0c
#850000
1$
1c
1z
0w
0Z
1Y
1i
18
09
1-!
0(!
1&!
1$!
1!!
0y
1K
1L
1N
0P
1a
1@
0/
1-
1+
1*
1j
#860000
0$
0c
#870000
1$
1c
0z
1m
1]
0Y
0i
1"!
1u
08
1<
0-!
1(!
0&!
0$!
1)!
1Q
0L
0N
1P
0a
0`
0?
0@
1/
0-
0+
10
0j
0(!
1&!
1$!
1v
1L
1N
0P
0/
1-
1+
#880000
0$
0c
#890000
1$
1c
1w
0m
0]
1Z
0"!
0u
19
0<
1y
0)!
0!!
0K
0Q
1`
1?
00
0*
1(!
0&!
0$!
0v
0L
0N
1P
1/
0-
0+
#900000
0$
0c
#910000
1$
1c
1z
0w
0Z
1Y
1i
18
09
1-!
0(!
1&!
1$!
1!!
0y
1K
1L
1N
0P
1a
1@
0/
1-
1+
1*
1j
#920000
0$
0c
#930000
1$
1c
0z
1m
1]
0Y
0i
1"!
1u
08
1<
0-!
1(!
0&!
0$!
1)!
1Q
0L
0N
1P
0a
0`
0?
0@
1/
0-
0+
10
0j
0(!
1&!
1$!
1v
1L
1N
0P
0/
1-
1+
#940000
0$
0c
#950000
1$
1c
1w
0m
0]
1Z
0"!
0u
19
0<
1y
0)!
0!!
0K
0Q
1`
1?
00
0*
1(!
0&!
0$!
0v
0L
0N
1P
1/
0-
0+
#960000
1"
0#
0$
0d
1f
0c
#970000
1$
1c
1z
0w
0Z
1Y
1i
18
09
1-!
0(!
1&!
1$!
1!!
0y
1K
1L
1N
0P
1a
1@
0/
1-
1+
1*
1j
#980000
0$
0c
#990000
1$
1c
0z
1m
1]
0Y
0i
1"!
1u
1n
08
1<
0-!
1(!
0&!
0$!
1)!
1Q
0L
0N
1P
0a
0`
0?
0@
1/
0-
0+
10
0j
0(!
1&!
1$!
1v
1L
1N
0P
0/
1-
1+
